…
``` r
library(dplyr)
# Filter the dataset for the State of Texas
texas_data <- us_contagious_diseases %>% filter(state == "Texas")

# Group the data by year and calculate the average case count per weeks_reporting
texas_data <- texas_data %>%
  group_by(year, disease) %>%
  mutate(ave_count = mean(count / weeks_reporting, na.rm = TRUE))

# View the updated dataset with the 'ave_count' variable
print(texas_data)
```

    ## # A tibble: 315 × 7
    ## # Groups:   year, disease [315]
    ##    disease     state  year weeks_reporting count population ave_count
    ##    <fct>       <fct> <dbl>           <dbl> <dbl>      <dbl>     <dbl>
    ##  1 Hepatitis A Texas  1966              52  1808   10470937      34.8
    ##  2 Hepatitis A Texas  1967              51  2727   10628322      53.5
    ##  3 Hepatitis A Texas  1968              50  2190   10798697      43.8
    ##  4 Hepatitis A Texas  1969              50  2312   10986554      46.2
    ##  5 Hepatitis A Texas  1970              51  2741   11196730      53.7
    ##  6 Hepatitis A Texas  1971              51  3731   11433080      73.2
    ##  7 Hepatitis A Texas  1972              46  3407   11694123      74.1
    ##  8 Hepatitis A Texas  1973              48  4569   11976810      95.2
    ##  9 Hepatitis A Texas  1974              43  3200   12277800      74.4
    ## 10 Hepatitis A Texas  1975              49  2845   12593389      58.1
    ## # ℹ 305 more rows
…
``` r
# Filter the dataset for the State of Texas
new_york_data <- us_contagious_diseases %>% filter(state == "New York")

# Group the data by year and calculate the average case count per weeks_reporting
new_york_data <- new_york_data %>%
  group_by(year, disease) %>%
  mutate(ave_count = mean(count / weeks_reporting, na.rm = TRUE))

# View the updated dataset with the 'ave_count' variable
print(new_york_data)
```

    ## # A tibble: 315 × 7
    ## # Groups:   year, disease [315]
    ##    disease     state     year weeks_reporting count population ave_count
    ##    <fct>       <fct>    <dbl>           <dbl> <dbl>      <dbl>     <dbl>
    ##  1 Hepatitis A New York  1966              50  2435   17895985      48.7
    ##  2 Hepatitis A New York  1967              52  3394   18025684      65.3
    ##  3 Hepatitis A New York  1968              52  3728   18128492      71.7
    ##  4 Hepatitis A New York  1969              49  3976   18200269      81.1
    ##  5 Hepatitis A New York  1970              51  5024   18236967      98.5
    ##  6 Hepatitis A New York  1971              50  4825   18236388      96.5
    ##  7 Hepatitis A New York  1972              46  3438   18203314      74.7
    ##  8 Hepatitis A New York  1973              47  2821   18144367      60.0
    ##  9 Hepatitis A New York  1974              46  2193   18066218      47.7
    ## 10 Hepatitis A New York  1975              49  1932   17975503      39.4
    ## # ℹ 305 more rows
…
    ## `summarise()` has grouped output by 'state'. You can override using the
    ## `.groups` argument.

``` r
# View the result
print(total_count_by_state_year)
```

    ## # A tibble: 4,284 × 3
    ## # Groups:   state [51]
    ##    state    year total_count
    ##    <fct>   <dbl>       <dbl>
    ##  1 Alabama  1928        9246
    ##  2 Alabama  1929        3395
    ##  3 Alabama  1930        4415
    ##  4 Alabama  1931        9283
    ##  5 Alabama  1932         772
    ##  6 Alabama  1933        1845
    ##  7 Alabama  1934       15922
    ##  8 Alabama  1935        7317
    ##  9 Alabama  1936        1002
    ## 10 Alabama  1937         758
    ## # ℹ 4,274 more rows
…
    ## `summarise()` has grouped output by 'state'. You can override using the
    ## `.groups` argument.

``` r
# View the result
print(disease_count_density)
```

    ## # A tibble: 4,284 × 3
    ## # Groups:   state [51]
    ##    state    year   density
    ##    <fct>   <dbl>     <dbl>
    ##  1 Alabama  1928 0.00119  
    ##  2 Alabama  1929 0.000432 
    ##  3 Alabama  1930 0.000556 
    ##  4 Alabama  1931 0.00116  
    ##  5 Alabama  1932 0.0000956
    ##  6 Alabama  1933 0.000227 
    ##  7 Alabama  1934 0.00194  
    ##  8 Alabama  1935 0.000887 
    ##  9 Alabama  1936 0.000121 
    ## 10 Alabama  1937 0.0000908
    ## # ℹ 4,274 more rows
…
